%!PS-Adobe-3.0
%%Title: intersector.c
%%For: Julien CLEMENT
%%Creator: a2ps version 4.13c
%%CreationDate: Fri Jul 25 16:28:51 2008
%%BoundingBox: 24 24 571 818
%%DocumentData: Clean7Bit
%%Orientation: Portrait
%%Pages: 7
%%PageOrder: Ascend
%%DocumentMedia: A4 595 842 0 () ()
%%DocumentNeededResources: font Courier
%%+ font Courier-Bold
%%+ font Courier-BoldOblique
%%+ font Courier-Oblique
%%+ font Helvetica
%%+ font Helvetica-Bold
%%+ font Symbol
%%+ font Times-Bold
%%+ font Times-Roman
%%DocumentProcessColors: Black 
%%DocumentSuppliedResources: procset a2ps-a2ps-hdr
%%+ procset a2ps-black+white-Prolog
%%+ encoding ISO-8859-1Encoding
%%EndComments
/a2psdict 200 dict def
a2psdict begin
%%BeginProlog
%%Copyright: (c) 1988, 89, 90, 91, 92, 93 Miguel Santana
%%Copyright: (c) 1995, 96, 97, 98 Akim Demaille, Miguel Santana
% Check PostScript language level.
/languagelevel where {
  pop /gs_languagelevel languagelevel def
} {
  /gs_languagelevel 1 def
} ifelse

% EPSF import as in the Red Book
/BeginInclude {
  /b4_Inc_state save def    		% Save state for cleanup
  /dict_count countdictstack def	% Count objects on dict stack
  /op_count count 1 sub def		% Count objects on operand stack 
  userdict begin
    0 setgray 0 setlinecap
    1 setlinewidth 0 setlinejoin
    10 setmiterlimit [ ] 0 setdash newpath
    gs_languagelevel 1 ne {
      false setstrokeadjust false setoverprint 
    } if
} bind def

/EndInclude {
  count op_count sub { pos } repeat	% Clean up stacks
  countdictstack dict_count sub { end } repeat
  b4_Inc_state restore
} bind def

/BeginEPSF {
  BeginInclude
  /showpage { } def
} bind def

/EndEPSF {
  EndInclude
} bind def

% Page prefeed
/page_prefeed {         % bool -> -
  statusdict /prefeed known {
    statusdict exch /prefeed exch put
  } {
    pop
  } ifelse
} bind def

/deffont {
  findfont exch scalefont def
} bind def

/reencode_font {
  findfont reencode 2 copy definefont pop def
} bind def

% Function c-show (str => -)
% centers text only according to x axis.
/c-show { 
  dup stringwidth pop
  2 div neg 0 rmoveto
  show
} bind def

% Function l-show (str => -)
% prints texts so that it ends at currentpoint
/l-show {
  dup stringwidth pop neg 
  0 
  rmoveto show
} bind def

% center-fit show (str w => -)
% show centered, and scale currentfont so that the width is less than w
/cfshow {
  exch dup stringwidth pop
  % If the title is too big, try to make it smaller
  3 2 roll 2 copy
  gt
  { % if, i.e. too big
    exch div
    currentfont exch scalefont setfont
  } { % ifelse
    pop pop 
  }
  ifelse
  c-show			% center title
} bind def

% Return the y size of the current font
% - => fontsize
/currentfontsize {
  currentfont /FontType get 0 eq {
    currentfont /FontMatrix get 3 get
  }{
    currentfont /FontMatrix get 3 get 1000 mul
  } ifelse
} bind def

% reencode the font
% <encoding-vector> <fontdict> -> <newfontdict>
/reencode { %def
  dup length 5 add dict begin
    { %forall
      1 index /FID ne 
      { def }{ pop pop } ifelse
    } forall
    /Encoding exch def

    % Use the font's bounding box to determine the ascent, descent,
    % and overall height; don't forget that these values have to be
    % transformed using the font's matrix.
    % We use `load' because sometimes BBox is executable, sometimes not.
    % Since we need 4 numbers an not an array avoid BBox from being executed
    /FontBBox load aload pop
    FontMatrix transform /Ascent exch def pop
    FontMatrix transform /Descent exch def pop
    /FontHeight Ascent Descent sub def

    % Define these in case they're not in the FontInfo (also, here
    % they're easier to get to.
    /UnderlinePosition 1 def
    /UnderlineThickness 1 def
    
    % Get the underline position and thickness if they're defined.
    currentdict /FontInfo known {
      FontInfo
      
      dup /UnderlinePosition known {
	dup /UnderlinePosition get
	0 exch FontMatrix transform exch pop
	/UnderlinePosition exch def
      } if
      
      dup /UnderlineThickness known {
	/UnderlineThickness get
	0 exch FontMatrix transform exch pop
	/UnderlineThickness exch def
      } if
      
    } if
    currentdict 
  end 
} bind def

% composite fonts for ASCII-EUC mixed strings
% Version 1.2 1/31/1990
% Original Ken'ichi HANDA (handa@etl.go.jp)
% Modified Norio Katayama (katayama@rd.nacsis.ac.jp),1998
% Extend & Fix Koji Nakamaru (maru@on.cs.keio.ac.jp), 1999
% Anyone can freely copy, modify, distribute this program.

/copyfont {	% font-dic extra-entry-count  copyfont  font-dic
	1 index maxlength add dict begin
	{	1 index /FID ne 2 index /UniqueID ne and
		{def} {pop pop} ifelse
	} forall
	currentdict
	end
} bind def

/compositefont { % ASCIIFontName EUCFontName RomanScale RomanOffset Rot(T/F) compositefont font
    /RomanRotation exch def
    /RomanOffset exch def
    /RomanScale exch def
    userdict /fixeucfont_dict known not {
	userdict begin
	    /fixeucfont_dict 2 dict begin
		/UpperByteEncoding [
		    16#00 1 16#20 { pop 0 } for
		    16#21 1 16#28 { 16#20 sub } for
		    16#29 1 16#2F { pop 0 } for
		    16#30 1 16#74 { 16#27 sub } for
		    16#75 1 16#FF { pop 0 } for
		] def
	        /LowerByteEncoding [
		    16#00 1 16#A0 { pop /.notdef } for
		    16#A1 1 16#FE { 16#80 sub 16 2 string cvrs
				    (cXX) dup 1 4 -1 roll
				    putinterval cvn } for
		    /.notdef
		] def
		currentdict
	    end def
	end
    } if
    findfont dup /FontType get 0 eq {
	14 dict begin
	    %
	    % 7+8 bit EUC font
	    %
	    12 dict begin
		/EUCFont exch def
		/FontInfo (7+8 bit EUC font) readonly def
		/PaintType 0 def
		/FontType 0 def
		/FontMatrix matrix def
		% /FontName
		/Encoding fixeucfont_dict /UpperByteEncoding get def
		/FMapType 2 def
		EUCFont /WMode known
		{ EUCFont /WMode get /WMode exch def }
		{ /WMode 0 def } ifelse
		/FDepVector [
		    EUCFont /FDepVector get 0 get
		    [ 16#21 1 16#28 {} for 16#30 1 16#74 {} for ]
		    {
			13 dict begin
			    /EUCFont EUCFont def
			    /UpperByte exch 16#80 add def	
			    % /FontName
			    /FontInfo (EUC lower byte font) readonly def
			    /PaintType 0 def
			    /FontType 3 def
			    /FontMatrix matrix def
			    /FontBBox {0 0 0 0} def
			    /Encoding
				fixeucfont_dict /LowerByteEncoding get def
			    % /UniqueID
			    % /WMode
			    /BuildChar {
				gsave
				exch dup /EUCFont get setfont
				/UpperByte get
				2 string
				dup 0 4 -1 roll put
				dup 1 4 -1 roll put
				dup stringwidth setcharwidth
				0 0 moveto show
				grestore
			    } bind def
			    currentdict
			end
			/lowerbytefont exch definefont
		    } forall
		] def
		currentdict
	    end
	    /eucfont exch definefont
	    exch
	    findfont 1 copyfont dup begin
		RomanRotation {
			/FontMatrix FontMatrix
			[ 0 RomanScale neg RomanScale 0 RomanOffset neg 0 ]
			matrix concatmatrix def
		}{
			/FontMatrix FontMatrix
			[ RomanScale 0 0 RomanScale 0 RomanOffset ] matrix concatmatrix
			def
			/CDevProc
			    {pop pop pop pop 0 exch -1000 exch 2 div 880} def
		} ifelse
	    end
	    /asciifont exch definefont
	    exch
	    /FDepVector [ 4 2 roll ] def
	    /FontType 0 def
	    /WMode 0 def
	    /FMapType 4 def
	    /FontMatrix matrix def
	    /Encoding [0 1] def
	    /FontBBox {0 0 0 0} def
%	    /FontHeight 1.0 def % XXXX
	    /FontHeight RomanScale 1.0 ge { RomanScale }{ 1.0 } ifelse def
	    /Descent -0.3 def   % XXXX
	    currentdict
	end
	/tmpfont exch definefont
	pop
	/tmpfont findfont
    }{
	pop findfont 0 copyfont
    } ifelse
} def	

/slantfont {	% FontName slant-degree  slantfont  font'
    exch findfont 1 copyfont begin
    [ 1 0 4 -1 roll 1 0 0 ] FontMatrix exch matrix concatmatrix
    /FontMatrix exch def
    currentdict
    end
} def

% Function print line number (<string> # -)
/# {
  gsave
    sx cw mul neg 2 div 0 rmoveto
    f# setfont
    c-show
  grestore
} bind def

% -------- Some routines to enlight plain b/w printings ---------

% Underline
% width --
/dounderline {
  currentpoint
  gsave
    moveto
    0 currentfont /Descent get currentfontsize mul rmoveto
    0 rlineto
    stroke
  grestore
} bind def

% Underline a string
% string --
/dounderlinestring {
  stringwidth pop
  dounderline
} bind def

/UL {
  /ul exch store
} bind def

% Draw a box of WIDTH wrt current font
% width --
/dobox {
  currentpoint
  gsave
    newpath
    moveto
    0 currentfont /Descent get currentfontsize mul rmoveto
    dup 0 rlineto
    0 currentfont /FontHeight get currentfontsize mul rlineto
    neg 0 rlineto
    closepath
    stroke
  grestore
} bind def

/BX {
  /bx exch store
} bind def

% Box a string
% string --
/doboxstring {
  stringwidth pop
  dobox
} bind def

%
% ------------- Color routines ---------------
%
/FG /setrgbcolor load def

% Draw the background
% width --
/dobackground {
  currentpoint
  gsave
    newpath
    moveto
    0 currentfont /Descent get currentfontsize mul rmoveto
    dup 0 rlineto
    0 currentfont /FontHeight get currentfontsize mul rlineto
    neg 0 rlineto
    closepath
    bgcolor aload pop setrgbcolor
    fill
  grestore
} bind def

% Draw bg for a string
% string --
/dobackgroundstring {
  stringwidth pop
  dobackground
} bind def


/BG {
  dup /bg exch store
  { mark 4 1 roll ] /bgcolor exch store } if
} bind def


/Show {
  bg { dup dobackgroundstring } if
  ul { dup dounderlinestring } if
  bx { dup doboxstring } if
  show
} bind def

% Function T(ab), jumps to the n-th tabulation in the current line
/T {
  cw mul x0 add
  bg { dup currentpoint pop sub dobackground } if
  ul { dup currentpoint pop sub dounderline } if
  bx { dup currentpoint pop sub dobox } if
  y0 moveto
} bind def

% Function n: move to the next line
/n {
  /y0 y0 bfs sub store
  x0 y0 moveto
} bind def

% Function N: show and move to the next line
/N {
  Show
  /y0 y0 bfs sub store
  x0 y0 moveto
} bind def

/S {
  Show
} bind def

%%BeginResource: procset a2ps-a2ps-hdr 2.0 2
%%Copyright: (c) 1988, 89, 90, 91, 92, 93 Miguel Santana
%%Copyright: (c) 1995, 96, 97, 98 Akim Demaille, Miguel Santana
% Function title: prints page header.
% <ct> <rt> <lt> are passed as argument
/title { 
  % 1. Draw the background
  x v get y v get moveto
  gsave
    0 th 2 div neg rmoveto 
    th setlinewidth
    0.95 setgray
    pw 0 rlineto stroke
  grestore
  % 2. Border it
  gsave
    0.7 setlinewidth
    pw 0 rlineto
    0 th neg rlineto
    pw neg 0 rlineto
    closepath stroke
  grestore
  % stk: ct rt lt
  x v get y v get th sub 1 add moveto
%%IncludeResource: font Helvetica
  fHelvetica fnfs 0.8 mul scalefont setfont
  % 3. The left title
  gsave
    dup stringwidth pop fnfs 0.8 mul add exch % leave space took on stack
    fnfs 0.8 mul hm rmoveto
    show			% left title
  grestore
  exch
  % stk: ct ltw rt
  % 4. the right title
  gsave
    dup stringwidth pop fnfs 0.8 mul add exch % leave space took on stack
    dup
    pw exch stringwidth pop fnfs 0.8 mul add sub
    hm
    rmoveto
    show			% right title
  grestore
  % stk: ct ltw rtw
  % 5. the center title
  gsave
    pw 3 1 roll
    % stk: ct pw ltw rtw
    3 copy 
    % Move to the center of the left room
    sub add 2 div hm rmoveto
    % What is the available space in here?
    add sub fnfs 0.8 mul sub fnfs 0.8 mul sub
    % stk: ct space_left
%%IncludeResource: font Helvetica-Bold
  fHelvetica-Bold fnfs scalefont setfont
    cfshow
  grestore
} bind def

% Function border: prints virtual page border
/border { %def
  gsave				% print four sides
    0 setgray
    x v get y v get moveto
    0.7 setlinewidth		% of the square
    pw 0 rlineto
    0 ph neg rlineto
    pw neg 0 rlineto
    closepath stroke
  grestore
} bind def

% Function water: prints a water mark in background
/water { %def
  gsave
    scx scy moveto rotate
%%IncludeResource: font Times-Bold
  fTimes-Bold 100 scalefont setfont
    .97 setgray
    dup stringwidth pop 2 div neg -50 rmoveto
    show
  grestore
} bind def

% Function rhead: prints the right header
/rhead {  %def
  lx ly moveto
  fHelvetica fnfs 0.8 mul scalefont setfont
  l-show
} bind def

% Function footer (cf rf lf -> -)
/footer {
  fHelvetica fnfs 0.8 mul scalefont setfont
  dx dy moveto
  show

  snx sny moveto
  l-show
  
  fnx fny moveto
  c-show
} bind def
%%EndResource
%%BeginResource: procset a2ps-black+white-Prolog 2.0 1

% Function T(ab), jumps to the n-th tabulation in the current line
/T { 
  cw mul x0 add y0 moveto
} bind def

% Function n: move to the next line
/n { %def
  /y0 y0 bfs sub store
  x0 y0 moveto
} bind def

% Function N: show and move to the next line
/N {
  Show
  /y0 y0 bfs sub store
  x0 y0 moveto
}  bind def

/S {
  Show
} bind def

/p {
  false UL
  false BX
  fCourier bfs scalefont setfont
  Show
} bind def

/sy {
  false UL
  false BX
  fSymbol bfs scalefont setfont
  Show
} bind def

/k {
  false UL
  false BX
  fCourier-Oblique bfs scalefont setfont
  Show
} bind def

/K {
  false UL
  false BX
  fCourier-Bold bfs scalefont setfont
  Show
} bind def

/c {
  false UL
  false BX
  fCourier-Oblique bfs scalefont setfont
  Show
} bind def

/C {
  false UL
  false BX
  fCourier-BoldOblique bfs scalefont setfont
  Show 
} bind def

/l {
  false UL
  false BX
  fHelvetica bfs scalefont setfont
  Show
} bind def

/L {
  false UL
  false BX
  fHelvetica-Bold bfs scalefont setfont
  Show 
} bind def

/str{
  false UL
  false BX
  fTimes-Roman bfs scalefont setfont
  Show
} bind def

/e{
  false UL
  true BX
  fHelvetica-Bold bfs scalefont setfont
  Show
} bind def

%%EndResource
%%EndProlog
%%BeginSetup
%%IncludeResource: font Courier
%%IncludeResource: font Courier-Oblique
%%IncludeResource: font Courier-Bold
%%IncludeResource: font Times-Roman
%%IncludeResource: font Symbol
%%IncludeResource: font Courier-BoldOblique
%%BeginResource: encoding ISO-8859-1Encoding
/ISO-8859-1Encoding [
/.notdef /.notdef /.notdef /.notdef /.notdef /.notdef /.notdef /.notdef 
/.notdef /.notdef /.notdef /.notdef /.notdef /.notdef /.notdef /.notdef 
/.notdef /.notdef /.notdef /.notdef /.notdef /.notdef /.notdef /.notdef 
/.notdef /.notdef /.notdef /.notdef /.notdef /.notdef /.notdef /.notdef 
/space /exclam /quotedbl /numbersign /dollar /percent /ampersand /quoteright 
/parenleft /parenright /asterisk /plus /comma /minus /period /slash 
/zero /one /two /three /four /five /six /seven 
/eight /nine /colon /semicolon /less /equal /greater /question 
/at /A /B /C /D /E /F /G 
/H /I /J /K /L /M /N /O 
/P /Q /R /S /T /U /V /W 
/X /Y /Z /bracketleft /backslash /bracketright /asciicircum /underscore 
/quoteleft /a /b /c /d /e /f /g 
/h /i /j /k /l /m /n /o 
/p /q /r /s /t /u /v /w 
/x /y /z /braceleft /bar /braceright /asciitilde /.notdef 
/.notdef /.notdef /.notdef /.notdef /.notdef /.notdef /.notdef /.notdef 
/.notdef /.notdef /.notdef /.notdef /.notdef /.notdef /.notdef /.notdef 
/.notdef /.notdef /.notdef /.notdef /.notdef /.notdef /.notdef /.notdef 
/.notdef /.notdef /.notdef /.notdef /.notdef /.notdef /.notdef /.notdef 
/space /exclamdown /cent /sterling /currency /yen /brokenbar /section 
/dieresis /copyright /ordfeminine /guillemotleft /logicalnot /hyphen /registered /macron 
/degree /plusminus /twosuperior /threesuperior /acute /mu /paragraph /bullet 
/cedilla /onesuperior /ordmasculine /guillemotright /onequarter /onehalf /threequarters /questiondown 
/Agrave /Aacute /Acircumflex /Atilde /Adieresis /Aring /AE /Ccedilla 
/Egrave /Eacute /Ecircumflex /Edieresis /Igrave /Iacute /Icircumflex /Idieresis 
/Eth /Ntilde /Ograve /Oacute /Ocircumflex /Otilde /Odieresis /multiply 
/Oslash /Ugrave /Uacute /Ucircumflex /Udieresis /Yacute /Thorn /germandbls 
/agrave /aacute /acircumflex /atilde /adieresis /aring /ae /ccedilla 
/egrave /eacute /ecircumflex /edieresis /igrave /iacute /icircumflex /idieresis 
/eth /ntilde /ograve /oacute /ocircumflex /otilde /odieresis /divide 
/oslash /ugrave /uacute /ucircumflex /udieresis /yacute /thorn /ydieresis 
] def
%%EndResource
% Initialize page description variables.
/sh 842 def
/sw 595 def
/llx 24 def
/urx 571 def
/ury 818 def
/lly 24 def
/#copies 1 def
/th 20.000000 def
/fnfs 15 def
/bfs 8.183722 def
/cw 4.910233 def

% Dictionary for ISO-8859-1 support
/iso1dict 8 dict begin
  /fCourier ISO-8859-1Encoding /Courier reencode_font
  /fCourier-Bold ISO-8859-1Encoding /Courier-Bold reencode_font
  /fCourier-BoldOblique ISO-8859-1Encoding /Courier-BoldOblique reencode_font
  /fCourier-Oblique ISO-8859-1Encoding /Courier-Oblique reencode_font
  /fHelvetica ISO-8859-1Encoding /Helvetica reencode_font
  /fHelvetica-Bold ISO-8859-1Encoding /Helvetica-Bold reencode_font
  /fTimes-Bold ISO-8859-1Encoding /Times-Bold reencode_font
  /fTimes-Roman ISO-8859-1Encoding /Times-Roman reencode_font
currentdict end def
/bgcolor [ 0 0 0 ] def
/bg false def
/ul false def
/bx false def
% The font for line numbering
/f# /Helvetica findfont bfs .6 mul scalefont def
/fSymbol /Symbol findfont def
/hm fnfs 0.25 mul def
/pw
   cw 111.400000 mul
def
/ph
   742.263630 th add
def
/pmw 0 def
/pmh 0 def
/v 0 def
/x [
  0
] def
/y [
  pmh ph add 0 mul ph add
] def
/scx sw 2 div def
/scy sh 2 div def
/snx urx def
/sny lly 2 add def
/dx llx def
/dy sny def
/fnx scx def
/fny dy def
/lx snx def
/ly ury fnfs 0.8 mul sub def
/sx 0 def
/tab 8 def
/x0 0 def
/y0 0 def
%%EndSetup

%%Page: (1) 1
%%BeginPageSetup
/pagesave save def
%%EndPageSetup
iso1dict begin
gsave
llx lly 12 add translate
/v 0 store
/x0 x v get 3.437163 add sx cw mul add store
/y0 y v get bfs th add sub store
x0 y0 moveto
(#include) K
( ") p
(qi.h) str
(") p n
(#include) K
( ") p
(mqi_log.h) str
(") p n
(#include) K
( <string.h>) p n
() N
(/* Option management and syntax inspired from GNU Make) c n
( * http://www.gnu.org/software/make/) N
( *) N
( * IMPORTANT:) N
( * If you add, remove or modify an option, you must alter:) N
( * ) S 8 T (- The "usage" string) N
( * ) S 8 T (- The "switches" structure declaration \(*not* command_switch\)) N
( * Additionally, you may add, remove or modify the appropriate) N
( * variables holding the value of the argument.) N
( * You may also add, modify or remove the default values.) N
( * To finish, you may need to free extra memory) N
( * in the "die" function.) N
( *) N
( */) N
() p n
(/* Default values for the optional arguments.) c n
( * To avoid confusions, use the same names as the) N
( * long option names but in capital letters and) N
( * with an underscore instead of a hyphen.) N
( */) N
(#define) K
( DEFAULT_MAXFACTOR) p 32 T () S 40 T (\( 10000) S 48 T (\)) N
(#define) K
( DEFAULT_OPTIMIZE) p 32 T () S 40 T (\( 0) S 48 T (\)) N
(#define) K
( DEFAULT_PROJECTIVE) p 32 T () S 40 T (\( 0) S 48 T (\)) N
(#define) K
( DEFAULT_OMIT_IMAGINARY) p 32 T () S 40 T (\( 0) S 48 T (\)) N
(#define) K
( DEFAULT_INPUT_EUCLIDEAN) p 32 T () S 40 T (\( 0) S 48 T (\)) N
(#define) K
( DEFAULT_VERBOSITY) p 32 T () S 40 T (\( 3) S 48 T (\)) N
(#define) K
( DEFAULT_LATEX) p 24 T () S 32 T () S 40 T (\( 0) S 48 T (\)) N
() N
(/* Variables holding the value of the optional arguments,) c n
( * assigned with their default values.) N
( * As for the default values, use the same name) N
( * as the long options.) N
( */) N
(static) K
() p 8 T () S
(long) k
() p 16 T (opt_maxfactor) S 32 T () S 40 T (=) S 48 T (DEFAULT_MAXFACTOR;) N
(static) K
() p 8 T () S
(int) k
() p 16 T (opt_optimize) S 32 T () S 40 T (=) S 48 T (DEFAULT_OPTIMIZE;) N
(static) K
() p 8 T () S
(int) k
() p 16 T (opt_projective) S 32 T () S 40 T (=) S 48 T (DEFAULT_PROJECTIVE;) N
(static) K
() p 8 T () S
(int) k
() p 16 T (opt_omit_imaginary) S 40 T (=) S 48 T (DEFAULT_OMIT_IMAGINARY;) N
(static) K
() p 8 T () S
(int) k
() p 16 T (opt_input_euclidean) S 40 T (=) S 48 T (DEFAULT_INPUT_EUCLIDEAN;) N
(static) K
() p 8 T () S
(int) k
() p 16 T (opt_verbosity) S 32 T () S 40 T (=) S 48 T (DEFAULT_VERBOSITY;) N
(static) K
() p 8 T () S
(int) k
() p 16 T (opt_latex) S 32 T () S 40 T (=) S 48 T (DEFAULT_LATEX;) N
() N
(/* Variables holding the input quadrics.) c n
( * Note that the maximum size is only limited by the maximum size of) N
( * a command line argument.) N
( */) N
(static) K
() p 8 T () S
(char) k
() p 16 T (*param_q1) S 32 T () S 40 T (=) S 48 T (\() S
(char) k
( *\)0;) p n
(static) K
() p 8 T () S
(char) k
() p 16 T (*param_q2) S 32 T () S 40 T (=) S 48 T (\() S
(char) k
( *\)0;) p n
() N
() N
(static) K
( ) p
(const) K
( ) p
(char) k
( * ) p
(const) K
() p 32 T (splash =) N
(") S
(\\n) str
(") p n
(") S
(%s \(c\) 2008 By Julien CLEMENT : clementj2005@yahoo.fr\\n) str
(") p n
(") S
(Part of the Quadric Intersection project\\n) str
(") p n
(") S
(http://www.loria.fr/equipes/vegas/qi/index.html\\n) str
(") p n
(") S
(This program usage is ruled by the license specified in the LICENSE\\n) str
(") p n
(") S
(file, at the root level of the QI package.\\n) str
(") p n
(") S
(\\n) str
(") p n
(;) N
() N
(static) K
( ) p
(const) K
( ) p
(char) k
( * ) p
(const) K
() p 32 T (usage =) N
() N
(") S
(Parameters:\\n) str
(") p n
(") S
(\\n) str
(") p n
() N
(") S
(Input parameters \(mandatory\)\\n) str
(") p n
(") S
(\\n) str
(") p n
(") S
(Notes:\\n) str
(") p n
(") S
(1. The input quadrics can be expressed in one of the following forms:\\n) str
(") p n
(") S
(\\033[10G- Affine equation\\033[40Gexample: \\"x^2-y^2+5\\"\\n) str
(") p n
(") S
(\\033[10G- Projective equation\\033[40Gexample: \\"x^2-y^2+5*w^2\\"\\n) str
(") p n
(") S
(\\033[10G- Vector of coefficients\\033[40Gexample: \\"[1 0 0 0 -1 0 0 0 0 1]\\"\\n) str
(") p n
(") S
(\\033[10G  The coefficients have the following layout:\\n) str
(") p n
(") S
(\\033[10G  [x^2 x*y x*z x*w y^2 y*z y*w z^2 z*w w^2]\\n) str
(") p n
(") S
(2. You must wrap the equation strings by quotes \(single or double\), and it can\\n) str
(") p n
(") S
(   contain spaces, example: \\"x ^  2 - y ^ 2 + 5\\".\\n) str
(") p n
(") S
(   The vectorial form must contain *at least* a *single* space between each\\n) str
(") p n
(") S
(   coefficient.\\n) str
(") p n
(") S
(\\n) str
(") p n
() N
(") S
(--q1=EQUATION_STRING\\033[30GFirst quadric to intersect.\\n) str
(") p n
(") S
(--q2=EQUATION_STRING\\033[30GFirst quadric to intersect.\\n) str
(") p n
(") S
(\\n) str
(") p n
() N
(") S
(Kernel parameters \(optional\)\\n) str
(") p n
(") S
(-m [N], --maxfactor=N\\033[30GUpper bound for the search of prime factors \(coded as a C signed long\).\\n) str
(") p n
(") S
(-O, --optimize\\033[30GAttempts to reduce the square roots in the output parametrizations.\\n) str
(") p n
(intersector.c) (Page 1/7) (jui 25, 08 16:24) title
border
grestore
(Printed by Julien CLEMENT) rhead
() (1/7) (vendredi juillet 25, 2008) footer
end % of iso1dict
pagesave restore
showpage
%%Page: (2) 2
%%BeginPageSetup
/pagesave save def
%%EndPageSetup
iso1dict begin
gsave
llx lly 12 add translate
/v 0 store
/x0 x v get 3.437163 add sx cw mul add store
/y0 y v get bfs th add sub store
x0 y0 moveto
(") p
(\\n) str
(") p n
() N
(") S
(Output parameters \(optional\)\\n) str
(") p n
(") S
(-p, --projective\\033[30GOutput all the equations in the projective space,\\n) str
(") p n
(") S
(\\033[30Gincluding the input equations.\\n) str
(") p n
(") S
(-i, --omit-imaginary\\033[30GDon't output the intersection components not\\n) str
(") p n
(") S
(\\033[30Gbelonging in the real affine space \(R^3\)\\n) str
(") p n
(") S
(-e, --input-euclidean\\033[30GOutput the euclidean type of the input quadrics\\n) str
(") p n
(") S
(-V [N], --verbosity=N\\033[30GChange the verbosity level of the output information:\\n) str
(") p n
() S 8 T (") S
(\\033[35G0 : print only the parametrization of the intersection\\n) str
(") p n
() S 8 T (") S
(\\033[35G1 : 0 plus print the type of the intersection\\n) str
(") p n
() S 8 T (") S
(\\033[35G2 : 1 plus add some description labels, exemple: \\"Type in complex projective space\\"\\n) str
(") p n
() S 8 T (") S
(\\033[35G3 : 2 plus output the input quadrics and a detailed explanation of the result format.\\n) str
(") p n
(") S
(-l, --latex\\033[30GOutput in LaTeX format.\\n) str
(") p n
(") S
(\\n) str
(") p n
() N
(") S
(Misc parameters\\n) str
(") p n
(") S
(-h, --help\\033[30GOutput this help message and quit.\\n) str
(") p n
(") S
(-v, --version\\033[30GOutput the current version of Quadric Intersection \(QI\)\\n) str
(") p n
(") S
(\\n) str
(") p n
() N
(") S
(Default parameters\\n) str
(") p n
(") S
(Only the input quadrics are mandatory. Any other parameter is optional and if not specified\\n) str
(") p n
(") S
(take the following default values:\\n) str
(") p n
(;) N
() N
() N
(/* A simplified version from GNU Make */) c n
(struct) k
( command_switch) p n
( {) N
() S 8 T () S
(int) k
( c;) p n
() N
() S 8 T () S
(enum) k n
() p 8 T ({) N
() S 8 T () S 16 T (positive_int,) S 32 T () S
(/* A positive integer */) c n
() p 8 T () S 16 T (positive_long,) S 32 T () S
(/* A positive long integer */) c n
() p 8 T () S 16 T (cstring) S 24 T () S 32 T () S
(/* One string per switch.) c n
() S 8 T () S 16 T () S 24 T () S 32 T (   Note that we replaced "string" by "cstring") N
() S 8 T () S 16 T () S 24 T () S 32 T (   to avoid any possible collision with the) N
() S 8 T () S 16 T () S 24 T () S 32 T (   C++ "string" class.) N
() S 8 T () S 16 T () S 24 T () S 32 T (*/) N
() p 8 T (} type;) N
() N
() S 8 T () S
(char) k
( *value_flag; ) p
(/* Pointer to the flag variable */) c n
() p 8 T () S
(char) k
( *value_opt;  ) p
(/* Pointer to the option variable */) c n
() p 8 T () S
(char) k
( **value_optstr;  ) p
(/* Double pointer to a string option variable */) c n
() p 8 T () S
(char) k
( *long_name;  ) p
(/* Long option name. */) c n
( };) p n
() N
(/* This structure is not const because we are likely to modify some memory areas) c n
( * pointed to by the "value_flag" and "value_opt" fields.) N
( */) N
(static) K
( ) p
(struct) k
( command_switch) p 32 T (switches[] =) N
( {) N
() S 8 T ({ ') S
(m) str
(', positive_long, \() p
(char) k
( *\)0,   \() p
(char) k
( *\) &opt_maxfactor,     \() p
(char) k
( **\)0, ") p
(maxfactor) str
("       },) p n
() S 8 T ({ ') S
(O) str
(', positive_int,  \() p
(char) k
( *\) &opt_optimize,        \() p
(char) k
( *\)0,) p 72 T (\() S
(char) k
( **\)0, ") p
(optimize) str
("        },) p n
() S 8 T ({ ') S
(p) str
(', positive_int,  \() p
(char) k
( *\) &opt_projective,      \() p
(char) k
( *\)0,) p 72 T (\() S
(char) k
( **\)0, ") p
(projective) str
("      },) p n
() S 8 T ({ ') S
(i) str
(', positive_int,  \() p
(char) k
( *\) &opt_omit_imaginary,  \() p
(char) k
( *\)0,) p 72 T (\() S
(char) k
( **\)0, ") p
(omit-imaginary) str
("  },) p n
() S 8 T ({ ') S
(e) str
(', positive_int,  \() p
(char) k
( *\) &opt_input_euclidean, \() p
(char) k
( *\)0,) p 72 T (\() S
(char) k
( **\)0, ") p
(input-euclidean) str
(" },) p n
() S 8 T ({ ') S
(V) str
(', positive_int,  \() p
(char) k
( *\)0,   \() p
(char) k
( *\) &opt_verbosity,) p 72 T (\() S
(char) k
( **\)0, ") p
(verbosity) str
("       },) p n
() S 8 T ({ ') S
(l) str
(', positive_int,  \() p
(char) k
( *\) &opt_latex,           \() p
(char) k
( *\)0,) p 72 T (\() S
(char) k
( **\)0, ") p
(latex) str
("           },) p n
() S 8 T ({ ') S
(h) str
(', positive_int,  \() p
(char) k
( *\)0,                     \() p
(char) k
( *\)0,) p 72 T (\() S
(char) k
( **\)0, ") p
(help) str
("            },) p n
() S 8 T ({ ') S
(v) str
(', positive_int,  \() p
(char) k
( *\)0,                     \() p
(char) k
( *\)0,) p 72 T (\() S
(char) k
( **\)0, ") p
(version) str
("         },) p n
() S 8 T () S
(/* Note that the parameters for specifying the input quadrics doesn't have) c n
() S 8 T ( * a short version so the character switch is set to the string termination) N
() S 8 T ( * character. Memory is allocated dynamically for "param_q1" and "param_q2" that's why we) N
() S 8 T ( * use the special field dedicated to character strings \(value_optstr\).) N
() S 8 T ( */) N
() p 8 T ({ ') S
(\\0) str
(',cstring,       \() p
(char) k
( *\)0,   ) p 48 T () S 56 T (     \() S
(char) k
( *\)0, \() p
(char) k
( **\) &param_q1, ") p
(q1) str
("             ) p n
( },) N
() S 8 T ({ ') S
(\\0) str
(',cstring,       \() p
(char) k
( *\)0,   ) p 48 T () S 56 T (     \() S
(char) k
( *\)0, \() p
(char) k
( **\) &param_q2, ") p
(q2) str
("             ) p n
( }) N
( };) N
() N
(/** Called atexit */) c n
(static) K
( ) p
(void) k
( die \() p
(void) k
(\)) p n
({) N
() S 8 T () S
(if) K
( \( param_q1 \)) p n
() S 8 T ({) N
() S 8 T () S 16 T (free \( param_q1 \);) N
() S 8 T () S 16 T (param_q1 = \() S
(char) k
( *\)0;) p n
() S 8 T (}) N
() S 8 T () S
(if) K
( \( param_q2 \)) p n
() S 8 T ({) N
() S 8 T () S 16 T (free \( param_q2 \);) N
() S 8 T () S 16 T (param_q2 = \() S
(char) k
( *\)0;) p n
() S 8 T (}) N
(}) N
() N
(static) K
( ) p
(char) k
( progname[255];) p n
(intersector.c) (Page 2/7) (jui 25, 08 16:24) title
border
grestore
(Printed by Julien CLEMENT) rhead
() (vendredi juillet 25, 2008) (2/7) footer
end % of iso1dict
pagesave restore
showpage
%%Page: (3) 3
%%BeginPageSetup
/pagesave save def
%%EndPageSetup
iso1dict begin
gsave
llx lly 12 add translate
/v 0 store
/x0 x v get 3.437163 add sx cw mul add store
/y0 y v get bfs th add sub store
x0 y0 moveto
() p n
(static) K
( ) p
(void) k
( help_and_quit \() p
(void) k
(\)) p n
({) N
() S 8 T (printf \() N
() S 8 T () S 16 T (") S
(Usage: %s [options]\\n) str
(") p n
() S 8 T () S 16 T (") S
(%s) str
(",) p n
() S 8 T () S 16 T (progname,) N
() S 8 T () S 16 T (usage) N
() S 8 T (       \);) N
() S 8 T (exit \(0\);) N
(}) N
() N
(static) K
( ) p
(void) k
( splash_and_quit \() p
(void) k
(\)) p n
({) N
() S 8 T (printf \(splash, progname\);) N
() S 8 T (exit \(0\);) N
(}) N
() N
(/* Parse the next argument \(optional or not\).) c n
( * Returns -1 on error, 0 on success.) N
( * "argc" is modified only when we have a short argument) N
( * taking a value. In that case argc is decremented.) N
( */) N
(static) K
( ) p
(int) k
( parse_opt \() p
(int) k
( * ) p
(const) K
( argc, ) p
(char) k
( *** argsptr\)) p n
({) N
() N
() S 8 T () S
(/* Current command switch */) c
() p 40 T () N
() S 8 T () S
(struct) k
( command_switch * cswitch;) p n
() N
() S 8 T () S
(/* C way to get the size of an array of elements */) c n
() p 8 T () S
(const) K
( ) p
(int) k
( nswitch = ) p
(sizeof) K
(\(switches\) / ) p
(sizeof) K
(\(switches[0]\);) p n
() N
() S 8 T () S
(int) k
( k;) p n
() S 8 T () S
(int) k
( long_option; ) p
(/* keep in memory if it was a long option */) c n
() p 8 T () S
(char) k
( * arg, * val;) p n
() S 8 T () S
(char) k
( ** args;) p n
() S 8 T () S
(char) k
( * option; ) p
(/* Keep trace of the original parameter \(short option or long option\) */) c n
() p 8 T () S
(int) k
( free_option; ) p
(/* Set to 1 if "option" should be freed */) c n
() p 8 T () S
(int) k
( free_val;) p 24 T ( ) S
(/* Same for "val" */) c n
() p n
(/* Handy memory cleaner */) c n
(#define) K
( FREEMEM) p 16 T () S 24 T () S 32 T () S 40 T () S 48 T (\\) N
() S 8 T () S
(do) K
({) p 16 T () S 24 T () S 32 T () S 40 T () S 48 T (\\) N
() S 8 T () S
(if) K
( \( free_option \) free \(option\);) p 48 T (\\) N
() S 8 T () S
(if) K
( \( free_val) p 24 T ( \) free \(val\);) S 40 T () S 48 T (\\) N
() S 8 T (}) S
(while) K
(\(0\)) p n
() N
() S 8 T (free_option = 0;) N
() S 8 T (free_val    = 0;) N
() N
() S 8 T (args = *argsptr;) N
() S 8 T (arg  =  *args;) N
() N
() S 8 T () S
(/* We must start with a hyphen anyway */) c n
() p 8 T () S
(if) K
( \( *arg != ') p
(-) str
(' \)) p n
() S 8 T ({) N
() S 8 T () S 16 T (fprintf \(stderr,) N
() S 8 T () S 16 T (") S
(Syntax error in the argument list. A hyphen \(-\) is expected, but a '%c' was provided.\\n) str
(",) p n
() S 8 T () S 16 T (*arg\);) N
() N
() S 8 T () S 16 T (FREEMEM;) N
() S 8 T () S 16 T () S
(return) K
( -1;) p n
() S 8 T (}) N
() N
() S 8 T () S
(/* Switch between a short option and a long option, and) c n
() S 8 T ( * find the command_switch.) N
() S 8 T ( * If none is found, then a bad argument error is reported.) N
() S 8 T ( */) N
() p n
() N
() S 8 T () S
(/* Skip the hyphen */) c n
() p 8 T (arg++;) N
() S 8 T (cswitch = ) S
(NULL) K
(;) p n
() S 8 T (option = arg;) N
() N
() S 8 T () S
(/* A second hyphen has been found: long option */) c n
() p 8 T () S
(if) K
( \( *arg == ') p
(-) str
(' \)) p n
() S 8 T ({) N
() S 8 T () S 16 T () S
(/* Long option */) c n
() p 8 T () S 16 T (long_option = 1;) N
() S 8 T () S 16 T () N
() S 8 T () S 16 T () S
(/* Skip the hyphen */) c n
() p 8 T () S 16 T (arg ++;) N
() S 8 T () S 16 T (option = arg;) N
() N
() S 8 T () S 16 T () S
(/* Check if there is a value */) c n
() p n
() S 8 T () S 16 T () S
(/* Initialize a new pointer "option".) c n
() S 8 T () S 16 T ( * By default it is the same as "arg".) N
() S 8 T () S 16 T ( * If a value is passed, then "option" is reduced) N
(intersector.c) (Page 3/7) (jui 25, 08 16:24) title
border
grestore
(Printed by Julien CLEMENT) rhead
() (3/7) (vendredi juillet 25, 2008) footer
end % of iso1dict
pagesave restore
showpage
%%Page: (4) 4
%%BeginPageSetup
/pagesave save def
%%EndPageSetup
iso1dict begin
gsave
llx lly 12 add translate
/v 0 store
/x0 x v get 3.437163 add sx cw mul add store
/y0 y v get bfs th add sub store
x0 y0 moveto
() c 8 T () S 16 T ( * to the substring *before* the equal sign.) N
() S 8 T () S 16 T ( * This is the reason for declaring another pointer.) N
() S 8 T () S 16 T ( */) N
() p 8 T () S 16 T (val = index \(arg, ') S
(=) str
('\);) p n
() N
() S 8 T () S 16 T () S
(if) K
( \( val \)) p n
() S 8 T () S 16 T ({) N
() S 8 T () S 16 T () S 24 T () S
(/* Store the long option name as the) c n
() S 8 T () S 16 T () S 24 T ( * string *before* the equal sign.) N
() S 8 T () S 16 T () S 24 T ( * Using "arg" directly would make the) N
() S 8 T () S 16 T () S 24 T ( * option beeing not recognized so we use) N
() S 8 T () S 16 T () S 24 T ( * "option" instead.) N
() S 8 T () S 16 T () S 24 T ( */) N
() p 8 T () S 16 T () S 24 T (option = \() S
(char) k
( *\)calloc\(val - arg, ) p
(sizeof) K
(\() p
(char) k
(\)\);) p n
() S 8 T () S 16 T () S 24 T (free_option = 1;) N
() N
() S 8 T () S 16 T () S 24 T (strncpy \(option, arg, val - arg\);) N
() N
() S 8 T () S 16 T () S 24 T () S
(/* Skip the equal sign */) c n
() p 8 T () S 16 T () S 24 T (val ++;) N
() S 8 T () S 16 T (}) N
() N
() S 8 T () S 16 T () S
(for) K
( \( k = 0; k < nswitch; k++ \)) p n
() S 8 T () S 16 T ({) N
() S 8 T () S 16 T () S 24 T () S
(/* Again, note that we use "option" and not "arg") c n
() S 8 T () S 16 T () S 24 T ( * for the reason previously exposed.) N
() S 8 T () S 16 T () S 24 T ( */) N
() p 8 T () S 16 T () S 24 T () S
(if) K
( \( ! strncmp\(option, switches[k].long_name,) p n
() S 8 T () S 16 T () S 24 T () S 32 T () S 40 T (strlen\(switches[k].long_name\)\) \)) N
() S 8 T () S 16 T () S 24 T ({) N
() S 8 T () S 16 T () S 24 T () S 32 T () S
(/* Found a matching switch, the option) c n
() S 8 T () S 16 T () S 24 T () S 32 T ( * has been recognized successfully) N
() S 8 T () S 16 T () S 24 T () S 32 T ( */) N
() p 8 T () S 16 T () S 24 T () S 32 T (cswitch = &switches[k];) N
() S 8 T () S 16 T () S 24 T () S 32 T () S
(break) K
(;) p n
() S 8 T () S 16 T () S 24 T (}) N
() S 8 T () S 16 T (}) N
() S 8 T () S 16 T () N
() S 8 T (}) N
() S 8 T () S
(else) K n
() p 8 T ({) N
() S 8 T () S 16 T () S
(/* Short option */) c n
() p 8 T () S 16 T (long_option = 0;) N
() N
() S 8 T () S 16 T () S
(/* Note that in the case of a short option,) c n
() S 8 T () S 16 T ( * the management of a possible value is not performed right now.) N
() S 8 T () S 16 T ( * The reason is that we don't know yet if an option is required.) N
() S 8 T () S 16 T ( * To collection the value of a short option it is need to) N
() S 8 T () S 16 T ( * modify argc, and report an error if no option was provided.) N
() S 8 T () S 16 T ( * So, it is done *after* we are sure that a value is expected.) N
() S 8 T () S 16 T ( */) N
() p 8 T () S 16 T () S
(for) K
( \( k = 0; k < nswitch; k++ \)) p n
() S 8 T () S 16 T ({) N
() S 8 T () S 16 T () S 24 T () S
(if) K
( \( switches[k].c == *arg \)) p n
() S 8 T () S 16 T () S 24 T ({) N
() S 8 T () S 16 T () S 24 T () S 32 T (cswitch = &switches[k];) N
() S 8 T () S 16 T () S 24 T () S 32 T () S
(break) K
(;) p n
() S 8 T () S 16 T () S 24 T (}) N
() S 8 T () S 16 T (}) N
() S 8 T (}) N
() S 8 T () N
() S 8 T () S
(/* If no switch has been found, a bad argument error is reported */) c n
() p 8 T () S
(if) K
( \( cswitch == ) p
(NULL) K
( \)) p n
() S 8 T ({) N
() S 8 T () S 16 T (fprintf \(stderr, ") S
(Invalid parameter: \\"%s%s\\"\\n) str
(", \(long_option\) ? \(") p
(--) str
("\) : \(") p
(-) str
("\), option\);) p n
() S 8 T () S 16 T (fprintf \(stderr, ") S
(Try \\"-h\\" or \\"--help\\"\\n) str
("\);) p n
() N
() S 8 T () S 16 T (FREEMEM;) N
() S 8 T () S 16 T () S
(return) K
( -1;) p n
() S 8 T (}) N
() N
() S 8 T () S
(/* The option has been identified.) c n
() S 8 T ( * First, handle miscellaneous options \(with *no* value\)) N
() S 8 T ( */) N
() p 8 T () S
(switch) K
( \( cswitch->c \)) p n
() S 8 T ({) N
() N
() S 8 T () S 16 T () S
(case) K
( ') p
(h) str
(':) p n
() S 8 T () S 16 T () S 24 T (help_and_quit\(\);) N
() S 8 T () S 16 T () S 24 T () S
(/* Never reached */) c n
() p 8 T () S 16 T () S 24 T (FREEMEM;) N
() S 8 T () S 16 T () S 24 T () S
(return) K
( 0;) p n
() N
() S 8 T () S 16 T () S
(case) K
( ') p
(v) str
(':) p n
() S 8 T () S 16 T () S 24 T (splash_and_quit\(\);) N
() S 8 T () S 16 T () S 24 T () S
(/* Never reached */) c n
() p 8 T () S 16 T () S 24 T (FREEMEM;) N
() S 8 T () S 16 T () S 24 T () S
(return) K
( 0;) p n
() S 8 T (}) N
() N
(intersector.c) (Page 4/7) (jui 25, 08 16:24) title
border
grestore
(Printed by Julien CLEMENT) rhead
() (vendredi juillet 25, 2008) (4/7) footer
end % of iso1dict
pagesave restore
showpage
%%Page: (5) 5
%%BeginPageSetup
/pagesave save def
%%EndPageSetup
iso1dict begin
gsave
llx lly 12 add translate
/v 0 store
/x0 x v get 3.437163 add sx cw mul add store
/y0 y v get bfs th add sub store
x0 y0 moveto
() p 8 T () S
(/* Handle flag arguments \(with *no* value\) */) c n
() p 8 T () S
(if) K
( \( \(cswitch->value_opt == ) p
(NULL) K
(\) && \(cswitch->value_optstr == ) p
(NULL) K
(\) \)) p n
() S 8 T ({) N
() S 8 T () S 16 T () S
(/* Set the flag to one */) c n
() p 8 T () S 16 T (*\(cswitch->value_flag\) = 1;) N
() N
() S 8 T () S 16 T () S
(/* Return no error */) c n
() p n
() S 8 T () S 16 T (FREEMEM;) N
() S 8 T () S 16 T () S
(return) K
( 0;) p n
() S 8 T (}) N
() S 8 T () N
() N
() S 8 T () S
(/* Handle arguments with value: we don't care the option) c n
() S 8 T ( * anymore, we only interpret the argument and load) N
() S 8 T ( * it in the specified variable.) N
() S 8 T ( */) N
() p n
() S 8 T () S
(/* Check that we provided a value */) c n
() p 8 T () S
(if) K
( \( long_option \)) p n
() S 8 T ({) N
() S 8 T () S 16 T () S
(if) K
( \(val == ) p
(NULL) K
(\)) p n
() S 8 T () S 16 T ({) N
() S 8 T () S 16 T () S 24 T (fprintf \(stderr,) N
() S 8 T () S 16 T () S 24 T (") S
(Value expected for parameter %s\\n) str
(", *args\);) p n
() N
() S 8 T () S 16 T () S 24 T (FREEMEM;) N
() S 8 T () S 16 T () S 24 T () S
(return) K
( -1;) p n
() S 8 T () S 16 T (}) N
() S 8 T (}) N
() S 8 T () S
(else) K n
() p 8 T ({) N
() S 8 T () S 16 T () S
(/* Short option: Now we're sure that a value is expected so) c n
() S 8 T () S 16 T ( * we decrement argc and attempt to find one.) N
() S 8 T () S 16 T ( * If either argc is zero or we find another) N
() S 8 T () S 16 T ( * option \(string beginning by a hyphen\), then) N
() S 8 T () S 16 T ( * the value is missing.) N
() S 8 T () S 16 T ( */) N
() p 8 T () S 16 T (\(*argc\) --;) N
() N
() S 8 T () S 16 T () S
(if) K
( \( *argc == 0 \)) p n
() S 8 T () S 16 T ({) N
() S 8 T () S 16 T () S 24 T (fprintf \(stderr,) N
() S 8 T () S 16 T () S 24 T (") S
(Value expected for parameter %s\\n) str
(", option\);) p n
() S 8 T () S 16 T () S 24 T (fprintf \(stderr, ") S
(try \\"-h\\" or \\"--help\\"\\n) str
("\);) p n
() N
() S 8 T () S 16 T () S 24 T (FREEMEM;) N
() S 8 T () S 16 T () S 24 T () S
(return) K
( -1;) p n
() S 8 T () S 16 T (}) N
() N
() S 8 T () S 16 T () S
(/* Advance args and copy the next argument string into val */) c n
() p 8 T () S 16 T (\(*argsptr\) ++;) N
() S 8 T () S 16 T (args = *argsptr;) N
() S 8 T () S 16 T (val = strdup \(*args\);) N
() S 8 T () S 16 T (free_val = 1;) N
() N
() S 8 T () S 16 T () S
(/* A hyphen has been found, which is not correct for a value. */) c n
() p 8 T () S 16 T () S
(if) K
( \( val[0] == ') p
(-) str
(' \)) p n
() S 8 T () S 16 T ({) N
() S 8 T () S 16 T () S 24 T (fprintf \(stderr,) N
() S 8 T () S 16 T () S 24 T (") S
(Value expected for parameter %s\\n) str
(", option\);) p n
() S 8 T () S 16 T () S 24 T (fprintf \(stderr, ") S
(try \\"-h\\" or \\"--help\\"\\n) str
("\);) p n
() N
() S 8 T () S 16 T () S 24 T (FREEMEM;) N
() S 8 T () S 16 T () S 24 T () S
(return) K
( -1;) p n
() S 8 T () S 16 T (}) N
() S 8 T (}) N
() N
() S 8 T () S
(/* All is ok, we can interpret the string stored in the field) c n
() S 8 T ( * val according to the type of the switch and finally load) N
() S 8 T ( * the data into the "value_opt" field.) N
() S 8 T ( * Note that it is necessary to reinterpret the generic pointer) N
() S 8 T ( * in the command_switch structure to the specific data types) N
() S 8 T ( * it points to !) N
() S 8 T ( */) N
() p n
() S 8 T () S
(/* Detect incoherent options */) c n
() p 8 T () S
(if) K
( \( strlen\(val\) == 0 \)) p n
() S 8 T ({) N
() S 8 T () S 16 T (fprintf \(stderr,) N
() S 8 T () S 16 T (") S
(Error: Zero length option provided for argument %s\\n) str
(", ) p n
() S 8 T () S 16 T (option\);) N
() N
() S 8 T () S 16 T (FREEMEM;) N
() S 8 T () S 16 T () S
(return) K
( -1;) p n
() S 8 T (}) N
() N
() S 8 T () S
(switch) K
( \( cswitch->type \)) p n
() S 8 T ({) N
() S 8 T () S 16 T () S
(case) K
( positive_int:) p n
(intersector.c) (Page 5/7) (jui 25, 08 16:24) title
border
grestore
(Printed by Julien CLEMENT) rhead
() (5/7) (vendredi juillet 25, 2008) footer
end % of iso1dict
pagesave restore
showpage
%%Page: (6) 6
%%BeginPageSetup
/pagesave save def
%%EndPageSetup
iso1dict begin
gsave
llx lly 12 add translate
/v 0 store
/x0 x v get 3.437163 add sx cw mul add store
/y0 y v get bfs th add sub store
x0 y0 moveto
() p 8 T () S 16 T () S 24 T (*\() S
(int) k
( *\)cswitch->value_opt = atoi \( val \);) p n
() S 8 T () S 16 T () S 24 T () S
(break) K
(;) p n
() N
() S 8 T () S 16 T () S
(case) K
( positive_long:) p n
() S 8 T () S 16 T () S 24 T (*\() S
(long) k
( *\)cswitch->value_opt = atol \( val \);) p n
() S 8 T () S 16 T () S 24 T () S
(break) K
(;) p n
() N
() S 8 T () S 16 T () S
(case) K
( cstring:) p n
() S 8 T () S 16 T () S 24 T () S
(/* Warning, cswitch->value_opt must point to) c n
() S 8 T () S 16 T () S 24 T ( * a *valid* memory area, i.e. which has been) N
() S 8 T () S 16 T () S 24 T ( * previously allocated somewhere !) N
() S 8 T () S 16 T () S 24 T ( * We know already that cswitch->value_opt is *not*) N
() S 8 T () S 16 T () S 24 T ( * NULL. Otherwise the current option would have) N
() S 8 T () S 16 T () S 24 T ( * already been interpreted as a simple flag.) N
() S 8 T () S 16 T () S 24 T ( */) N
() p 8 T () S 16 T () S 24 T (*cswitch->value_optstr = strdup\(val\);) N
() S 8 T () S 16 T () S 24 T () S
(break) K
(;) p n
() N
() S 8 T () S 16 T () S
(default) K
(:) p n
() S 8 T () S 16 T () S 24 T (fprintf \(stderr,) N
() S 8 T () S 16 T () S 24 T (") S
(Unexpected error: unsupported option type %d\\n) str
(", cswitch->type\);) p n
() S 8 T () S 16 T () S 24 T () N
() S 8 T () S 16 T () S 24 T (FREEMEM;) N
() S 8 T () S 16 T () S 24 T () S
(return) K
( -1;) p n
() S 8 T (}) N
() S 8 T () N
() S 8 T () S
(/* Free local memory */) c n
() p 8 T (FREEMEM;) N
() N
(#undef) K
( FREEMEM) p n
() N
(}) N
() N
(/* Do not alter those functions, unless you find a bug.) c n
( * getopt_long could have been used, but it would have) N
( * led to additional changes to provide when) N
( * adding/modifying/removing the arguments.) N
( * Hence, here is a homemade function for parsing arguments.) N
( */) N
(static) K
( ) p
(void) k
( parse_args \() p
(int) k
( argc, ) p
(char) k
( ** argv\)) p n
({) N
() N
() S 8 T () S
(/* Current argument */) c n
() p 8 T () S
(char) k
( ** arg;) p n
() N
() S 8 T () S
(/* Return value of "parse_opt" */) c n
() p 8 T () S
(int) k
( parse_ret;) p n
() N
() S 8 T (arg = &argv[0];) N
() S 8 T (strncpy\(progname, *arg, strlen\(*arg\)\);) N
() N
() S 8 T () S
(for) K
( \( ; ; \)) p n
() S 8 T ({) N
() S 8 T () S 16 T () S
(/* No more argument to parse */) c
() p 48 T () S 56 T () N
() S 8 T () S 16 T (argc--;) N
() S 8 T () S 16 T () S
(if) K
( \( argc == 0 \) ) p
(break) K
(;) p n
() S 8 T () S 16 T () N
() S 8 T () S 16 T () S
(/* Advance to the next argument */) c n
() p 8 T () S 16 T (arg++;) N
() N
() S 8 T () S 16 T () S
(/* Treat it and modify argc accordingly. */) c n
() p 8 T () S 16 T (parse_ret = parse_opt \(&argc, &arg\);) N
() N
() S 8 T () S 16 T () S
(if) K
( \( parse_ret == -1 \)) p n
() S 8 T () S 16 T ({) N
() S 8 T () S 16 T () S 24 T () S
(/* "-1" is returned either when an error occured) c n
() S 8 T () S 16 T () S 24 T ( * or when a premature end is required, like) N
() S 8 T () S 16 T () S 24 T ( * when passing the "-h/--help" argument.) N
() S 8 T () S 16 T () S 24 T ( * If an error occurs, it is reported in "parse_opt".) N
() S 8 T () S 16 T () S 24 T ( * Anyway, die and exit.) N
() S 8 T () S 16 T () S 24 T ( */) N
() p 8 T () S 16 T () S 24 T (exit\(parse_ret\);) N
() S 8 T () S 16 T (}) N
() S 8 T (}) N
() N
() S 8 T () S
(/* Parsing is finished, no error occured, no premature end) c n
() S 8 T ( * occured) N
() S 8 T ( */) N
() p n
() S 8 T () S
(/* Detect inconsistent argument list.) c n
() S 8 T ( * \(one of the required arguments is missing\).) N
() S 8 T ( */) N
() p 8 T () S
(if) K
( \( \(param_q1 == \() p
(char) k
( *\)0 \) || \(param_q2 == \() p
(char) k
( *\)0\) \)) p n
() S 8 T ({) N
() S 8 T () S 16 T (fprintf \(stderr, ") S
(An input quadric is missing, try --help.\\n) str
("\);) p n
() S 8 T () S 16 T (exit \(-1\);) N
() S 8 T (}) N
() N
() S 8 T () S
(/* All was ok */) c n
() p 8 T () S
(return) K
(;) p n
(intersector.c) (Page 6/7) (jui 25, 08 16:24) title
border
grestore
(Printed by Julien CLEMENT) rhead
() (vendredi juillet 25, 2008) (6/7) footer
end % of iso1dict
pagesave restore
showpage
%%Page: (7) 7
%%BeginPageSetup
/pagesave save def
%%EndPageSetup
iso1dict begin
gsave
llx lly 12 add translate
/v 0 store
/x0 x v get 3.437163 add sx cw mul add store
/y0 y v get bfs th add sub store
x0 y0 moveto
() p n
(}) N
() N
(/* Print a summary of the specified options */) c n
(static) K
( ) p
(void) k
( debug_options \() p
(void) k
(\)) p n
({) N
() N
(#define) K
( _FLAG\(integer\)) p 24 T () S 32 T () S 40 T (\(integer\) ? \(') S
(Y) str
('\) : \(') p
(N) str
('\)) p n
(#define) K
( _MODIF\(val,default_val\)) p 32 T () S 40 T (\(val == default_val\) ? \(') S
(-) str
('\) : \(') p
(*) str
('\)) p n
() N
() S 8 T (printf \() N
() S 8 T (") S
(--- Option summary \('*' means \\"modified\\" and '-' means \\"default\\"\)\\n) str
(") p n
() S 8 T (") S
(maxfactor:\\033[30G%ld\\033[40G\(%c\)\\n) str
(") p n
() S 8 T (") S
(optimize:\\033[30G%c\\033[40G\(%c\)\\n) str
(") p n
() S 8 T (") S
(projective:\\033[30G%c\\033[40G\(%c\)\\n) str
(") p n
() S 8 T (") S
(omit imaginary:\\033[30G%c\\033[40G\(%c\)\\n) str
(") p n
() S 8 T (") S
(input euclidean:\\033[30G%c\\033[40G\(%c\)\\n) str
(") p n
() S 8 T (") S
(verbosity:\\033[30G%d\\033[40G\(%c\)\\n) str
(") p n
() S 8 T (") S
(latex:\\033[30G%c\\033[40G\(%c\)\\n) str
(",) p 48 T () N
() S 8 T () S 16 T (opt_maxfactor, ) S 32 T () S 40 T () S 48 T (_MODIF\(opt_maxfactor, ) S 72 T () S 80 T (DEFAULT_MAXFACTOR\),) N
() S 8 T () S 16 T (_FLAG\(opt_optimize\),) S 40 T () S 48 T (_MODIF\(opt_optimize,  ) S 72 T () S 80 T (DEFAULT_OPTIMIZE\),) N
() S 8 T () S 16 T (_FLAG\(opt_projective\),) S 40 T () S 48 T (_MODIF\(opt_projective,) S 72 T () S 80 T (DEFAULT_PROJECTIVE\),) N
() S 8 T () S 16 T (_FLAG\(opt_omit_imaginary\),) S 48 T (_MODIF\(opt_omit_imaginary,) S 80 T (DEFAULT_OMIT_IMAGINARY\),) N
() S 8 T () S 16 T (_FLAG\(opt_input_euclidean\),) S 48 T (_MODIF\(opt_input_euclidean,) S 80 T (DEFAULT_INPUT_EUCLIDEAN\),) N
() S 8 T () S 16 T (opt_verbosity,) S 32 T () S 40 T () S 48 T (_MODIF\(opt_verbosity,) S 72 T () S 80 T (DEFAULT_VERBOSITY\),) N
() S 8 T () S 16 T (_FLAG\(opt_latex\),) S 40 T () S 48 T (_MODIF\(opt_latex,) S 72 T () S 80 T (DEFAULT_LATEX\)) N
() S 8 T (\);) N
() N
() S 8 T () S
(if) K
( \( param_q1 \)) p n
() S 8 T ({) N
() S 8 T () S 16 T (printf \() N
() S 8 T () S 16 T (") S
(\\n--- Input quadrics\\n) str
(") p n
() S 8 T () S 16 T (") S
(q1: %s\\n) str
(") p n
() S 8 T () S 16 T (") S
(q2: %s\\n) str
(",) p n
() S 8 T () S 16 T (param_q1, param_q2) N
() S 8 T () S 16 T (\);) N
() S 8 T (}) N
() N
(#undef) K
( _FLAG) p n
(#undef) K
( _MODIF) p n
() N
() S 8 T () S
(return) K
(;) p n
(}) N
() N
(int) k
( main \() p
(int) k
( argc, ) p
(char) k
( ** argv\)) p n
({) N
() N
() S 8 T (qi_inter_t quad_inter;) N
() S 8 T (mqi_mat_t  q1;) N
() S 8 T (mqi_mat_t  q2;) N
() S 8 T (mqi_vect_t vect;) N
() N
() S 8 T (atexit\(die\);) N
() N
() S 8 T (parse_args \(argc, argv\);) N
() N
() S 8 T () S
(/* Keep this function call commented in case) c n
() S 8 T ( * something goes weird and you'd need) N
() S 8 T ( * to uncomment it.) N
() S 8 T ( */) N
() p 8 T () S
(/*debug_options\(\);*/) c n
() p n
() S 8 T (qi_parse \(vect, param_q1\);) N
() S 8 T (qi_vect_to_quad\(q1, vect\);) N
() S 8 T () N
() S 8 T (mqi_vect_clear\(vect\);) N
() S 8 T (qi_parse \(vect, param_q2\);) N
() N
() S 8 T (qi_vect_to_quad\(q2, vect\);) N
() N
(/*) c 8 T (printf \("Input quadrics:\\n"\);) N
() S 8 T (mqi_mat_print\(q1\);) N
() S 8 T (mqi_log_printf \("\\n"\);) N
() S 8 T (mqi_mat_print\(q2\);) N
() S 8 T (mqi_log_printf \("\\n"\);*/) N
() p 8 T () S
(//qi_intersect \(quad_inter, q1, q2, opt_optimize\);) c n
() p n
() N
() S 8 T () S
(/** Free local memory */) c n
() p 8 T () S
(//qi_inter_clear \(quad_inter\);) c n
(/*) S 8 T (mqi_mat_list_clear\(q1, q2, NULL\);) N
() S 8 T (mqi_vect_clear\(vect\);) N
(*/) S
() p 8 T () N
() S 8 T () S
(/** Return to shell */) c n
() p 8 T (exit \(0\);) N
(}) N
() N
(intersector.c) (Page 7/7) (jui 25, 08 16:24) title
border
grestore
(Printed by Julien CLEMENT) rhead
() (7/7) (vendredi juillet 25, 2008) footer
end % of iso1dict
pagesave restore
showpage

%%Trailer
end
%%EOF
